<svg width="971" height="409" viewBox="0 0 971 409" fill="none" xmlns="http://www.w3.org/2000/svg">
<path d="M8.63965 229.418C8.63965 230.424 8.99609 231.215 9.70898 231.792C10.4219 232.368 11.4058 232.656 12.6606 232.656C13.9741 232.656 14.9678 232.38 15.6416 231.828C16.3154 231.271 16.6523 230.468 16.6523 229.418C16.6523 228.964 16.6084 228.525 16.5205 228.1C16.4277 227.675 16.3105 227.233 16.1689 226.774L17.6704 226.774C17.9878 227.614 18.1465 228.566 18.1465 229.631C18.1465 231.198 17.6729 232.402 16.7256 233.242C15.7734 234.082 14.4136 234.501 12.646 234.501C11.5327 234.501 10.5586 234.299 9.72363 233.894C8.88867 233.483 8.24902 232.893 7.80469 232.121C7.36035 231.35 7.13818 230.444 7.13818 229.404C7.13818 228.31 7.36768 227.299 7.82666 226.372L9.28418 227.001C9.11328 227.363 8.96436 227.746 8.8374 228.151C8.70557 228.552 8.63965 228.974 8.63965 229.418ZM18 218.937L16.938 219.179L16.938 219.267C17.314 219.506 17.6094 219.848 17.8242 220.292C18.0391 220.732 18.1465 221.235 18.1465 221.801C18.1465 222.783 17.9023 223.515 17.4141 223.999C16.9258 224.482 16.186 224.724 15.1948 224.724L9.89941 224.724L9.89941 222.988L14.8945 222.988C15.5146 222.988 15.981 222.861 16.2935 222.607C16.6011 222.353 16.7549 221.955 16.7549 221.413C16.7549 220.69 16.54 220.161 16.1104 219.824C15.6758 219.482 14.9507 219.311 13.9351 219.311L9.89941 219.311L9.89941 217.583L18 217.583L18 218.937ZM15.6929 209.687C16.4839 209.687 17.0918 209.975 17.5166 210.551C17.9365 211.127 18.1465 211.953 18.1465 213.027C18.1465 214.106 17.9829 214.973 17.6558 215.627L16.1689 215.627C16.6084 214.675 16.8281 213.789 16.8281 212.968C16.8281 211.909 16.5083 211.379 15.8687 211.379C15.6636 211.379 15.4927 211.437 15.356 211.555C15.2192 211.672 15.0776 211.865 14.9312 212.133C14.7847 212.402 14.6187 212.775 14.4331 213.254C14.0718 214.187 13.7104 214.819 13.3491 215.151C12.9878 215.478 12.519 215.642 11.9429 215.642C11.2495 215.642 10.7124 215.363 10.3315 214.807C9.9458 214.245 9.75293 213.483 9.75293 212.521C9.75293 211.569 9.9458 210.668 10.3315 209.819L11.6279 210.375C11.2666 211.25 11.0859 211.984 11.0859 212.58C11.0859 213.488 11.3447 213.942 11.8623 213.942C12.1162 213.942 12.3311 213.825 12.5068 213.591C12.6826 213.352 12.9243 212.834 13.2319 212.038C13.4907 211.369 13.7275 210.883 13.9424 210.581C14.1572 210.278 14.4062 210.053 14.6895 209.907C14.9678 209.76 15.3022 209.687 15.6929 209.687ZM16.7549 204.802C16.7549 204.382 16.689 203.962 16.5571 203.542L17.8535 203.542C17.9365 203.732 18.0049 203.979 18.0586 204.282C18.1172 204.58 18.1465 204.89 18.1465 205.212C18.1465 206.843 17.2871 207.658 15.5684 207.658L11.2031 207.658L11.2031 208.764L10.4414 208.764L9.81152 207.578L8.09765 206.992L8.09765 205.93L9.89941 205.93L9.89941 203.623L11.2031 203.623L11.2031 205.93L15.5391 205.93C15.9541 205.93 16.2617 205.827 16.4619 205.622C16.6572 205.412 16.7549 205.139 16.7549 204.802ZM13.9351 194.731C15.2583 194.731 16.291 195.07 17.0332 195.749C17.7754 196.428 18.1465 197.373 18.1465 198.583C18.1465 199.34 17.9756 200.009 17.6338 200.59C17.292 201.171 16.8013 201.618 16.1616 201.931C15.522 202.243 14.7798 202.399 13.9351 202.399C12.6216 202.399 11.5962 202.062 10.8589 201.389C10.1216 200.715 9.75293 199.765 9.75293 198.54C9.75293 197.368 10.1313 196.44 10.8882 195.756C11.6401 195.073 12.6558 194.731 13.9351 194.731ZM13.9351 200.627C15.8052 200.627 16.7402 199.936 16.7402 198.554C16.7402 197.187 15.8052 196.503 13.9351 196.503C12.0845 196.503 11.1592 197.192 11.1592 198.569C11.1592 199.292 11.3984 199.816 11.877 200.144C12.3555 200.466 13.0415 200.627 13.9351 200.627ZM18 185.92L18 187.648L13.0049 187.648C12.3848 187.648 11.9233 187.766 11.6206 188C11.313 188.234 11.1592 188.601 11.1592 189.099C11.1592 189.763 11.3765 190.251 11.811 190.563C12.2407 190.871 12.9585 191.025 13.9644 191.025L18 191.025L18 192.746L9.89941 192.746L9.89941 191.398L10.9614 191.157L10.9614 191.069C10.5757 190.844 10.2778 190.52 10.0679 190.095C9.85791 189.665 9.75293 189.194 9.75293 188.681C9.75293 187.436 10.1777 186.611 11.0273 186.206L11.0273 186.088C10.627 185.849 10.3145 185.512 10.0898 185.078C9.86523 184.643 9.75293 184.145 9.75293 183.583C9.75293 182.617 9.99707 181.914 10.4853 181.474C10.9736 181.03 11.7183 180.808 12.7192 180.808L18 180.808L18 182.529L13.0049 182.529C12.3848 182.529 11.9233 182.648 11.6206 182.888C11.313 183.122 11.1592 183.488 11.1592 183.986C11.1592 184.655 11.3691 185.146 11.7891 185.458C12.2041 185.766 12.8437 185.92 13.708 185.92L18 185.92ZM18.1465 174.868C18.1465 176.127 17.7803 177.114 17.0478 177.827C16.3105 178.535 15.2974 178.889 14.0083 178.889C12.6851 178.889 11.645 178.559 10.8882 177.9C10.1313 177.241 9.75293 176.335 9.75293 175.183C9.75293 174.113 10.0776 173.269 10.727 172.648C11.3765 172.028 12.27 171.718 13.4077 171.718L14.3379 171.718L14.3379 177.116C15.124 177.092 15.7295 176.879 16.1543 176.479C16.5742 176.079 16.7842 175.515 16.7842 174.787C16.7842 174.309 16.7402 173.864 16.6523 173.454C16.5596 173.039 16.4082 172.595 16.1982 172.121L17.5972 172.121C17.7974 172.541 17.939 172.966 18.022 173.396C18.105 173.825 18.1465 174.316 18.1465 174.868ZM11.0566 175.183C11.0566 175.729 11.23 176.169 11.5767 176.501C11.9233 176.828 12.4287 177.023 13.0928 177.087L13.0928 173.41C12.4238 173.42 11.9185 173.581 11.5767 173.894C11.23 174.206 11.0566 174.636 11.0566 175.183ZM9.75293 165.654C9.75293 165.307 9.77734 165.021 9.82617 164.797L11.4302 164.965C11.3716 165.209 11.3423 165.463 11.3423 165.727C11.3423 166.416 11.5669 166.975 12.0161 167.404C12.4653 167.829 13.0488 168.042 13.7666 168.042L18 168.042L18 169.763L9.89941 169.763L9.89941 168.415L11.3276 168.188L11.3276 168.1C10.8442 167.832 10.4609 167.482 10.1777 167.053C9.89453 166.618 9.75293 166.152 9.75293 165.654ZM8.63964 154.653C8.63964 155.659 8.99609 156.45 9.70898 157.026C10.4219 157.602 11.4058 157.89 12.6606 157.89C13.9741 157.89 14.9678 157.614 15.6416 157.062C16.3154 156.506 16.6523 155.703 16.6523 154.653C16.6523 154.199 16.6084 153.759 16.5205 153.334C16.4277 152.91 16.3105 152.468 16.1689 152.009L17.6704 152.009C17.9878 152.849 18.1465 153.801 18.1465 154.865C18.1465 156.433 17.6728 157.636 16.7256 158.476C15.7734 159.316 14.4136 159.736 12.646 159.736C11.5327 159.736 10.5586 159.533 9.72363 159.128C8.88867 158.718 8.24902 158.127 7.80468 157.355C7.36035 156.584 7.13818 155.678 7.13818 154.638C7.13818 153.544 7.36767 152.534 7.82666 151.606L9.28418 152.236C9.11328 152.597 8.96435 152.98 8.8374 153.386C8.70556 153.786 8.63964 154.208 8.63964 154.653ZM13.9351 142.7C15.2583 142.7 16.291 143.039 17.0332 143.718C17.7754 144.396 18.1465 145.341 18.1465 146.552C18.1465 147.309 17.9756 147.978 17.6338 148.559C17.292 149.14 16.8013 149.587 16.1616 149.899C15.522 150.212 14.7798 150.368 13.9351 150.368C12.6216 150.368 11.5962 150.031 10.8589 149.357C10.1216 148.684 9.75293 147.734 9.75293 146.508C9.75293 145.336 10.1313 144.409 10.8882 143.725C11.6401 143.042 12.6558 142.7 13.9351 142.7ZM13.9351 148.596C15.8052 148.596 16.7402 147.905 16.7402 146.523C16.7402 145.156 15.8052 144.472 13.9351 144.472C12.0845 144.472 11.1592 145.161 11.1592 146.538C11.1592 147.26 11.3984 147.785 11.8769 148.112C12.3555 148.435 13.0415 148.596 13.9351 148.596ZM18 135.002L16.938 135.244L16.938 135.332C17.314 135.571 17.6094 135.913 17.8242 136.357C18.0391 136.796 18.1465 137.299 18.1465 137.866C18.1465 138.847 17.9023 139.58 17.4141 140.063C16.9258 140.546 16.186 140.788 15.1948 140.788L9.89941 140.788L9.89941 139.052L14.8945 139.052C15.5146 139.052 15.981 138.925 16.2935 138.671C16.6011 138.417 16.7549 138.02 16.7549 137.478C16.7549 136.755 16.54 136.225 16.1103 135.888C15.6758 135.546 14.9507 135.375 13.9351 135.375L9.89941 135.375L9.89941 133.647L18 133.647L18 135.002ZM18 124.067L18 125.795L13.0195 125.795C12.3945 125.795 11.9282 125.922 11.6206 126.176C11.313 126.425 11.1592 126.823 11.1592 127.37C11.1592 128.098 11.374 128.63 11.8037 128.967C12.2334 129.304 12.9536 129.472 13.9644 129.472L18 129.472L18 131.193L9.89941 131.193L9.89941 129.846L10.9614 129.604L10.9614 129.516C10.5757 129.272 10.2778 128.925 10.0679 128.476C9.85791 128.027 9.75292 127.529 9.75292 126.982C9.75292 125.039 10.7417 124.067 12.7192 124.067L18 124.067ZM16.7549 118.654C16.7549 118.234 16.689 117.814 16.5571 117.395L17.8535 117.395C17.9365 117.585 18.0049 117.832 18.0586 118.134C18.1172 118.432 18.1465 118.742 18.1465 119.064C18.1465 120.695 17.2871 121.511 15.5684 121.511L11.2031 121.511L11.2031 122.617L10.4414 122.617L9.81152 121.43L8.09765 120.844L8.09765 119.782L9.89941 119.782L9.89941 117.475L11.2031 117.475L11.2031 119.782L15.5391 119.782C15.9541 119.782 16.2617 119.68 16.4619 119.475C16.6572 119.265 16.7549 118.991 16.7549 118.654Z" fill="#8083A3"/>
<path d="M486.774 402.999L483.668 394.056H483.61C483.693 395.384 483.734 396.629 483.734 397.792V402.999H482.145V392.291H484.613L487.587 400.809H487.631L490.692 392.291H493.168V402.999H491.483V397.704C491.483 397.171 491.496 396.478 491.52 395.624C491.549 394.769 491.574 394.251 491.593 394.071H491.535L488.319 402.999H486.774ZM502.99 398.934C502.99 400.257 502.65 401.29 501.972 402.032C501.293 402.774 500.348 403.146 499.137 403.146C498.38 403.146 497.711 402.975 497.13 402.633C496.549 402.291 496.103 401.8 495.79 401.161C495.478 400.521 495.321 399.779 495.321 398.934C495.321 397.621 495.658 396.595 496.332 395.858C497.006 395.121 497.956 394.752 499.181 394.752C500.353 394.752 501.281 395.13 501.964 395.887C502.648 396.639 502.99 397.655 502.99 398.934ZM497.094 398.934C497.094 400.804 497.785 401.739 499.167 401.739C500.534 401.739 501.217 400.804 501.217 398.934C501.217 397.083 500.529 396.158 499.152 396.158C498.429 396.158 497.904 396.397 497.577 396.876C497.255 397.354 497.094 398.041 497.094 398.934ZM512.101 402.999H510.373V398.019C510.373 397.394 510.246 396.927 509.992 396.62C509.743 396.312 509.345 396.158 508.798 396.158C508.07 396.158 507.538 396.373 507.201 396.803C506.864 397.232 506.696 397.953 506.696 398.963V402.999H504.975V394.898H506.322L506.564 395.96H506.652C506.896 395.575 507.243 395.277 507.692 395.067C508.141 394.857 508.639 394.752 509.186 394.752C511.129 394.752 512.101 395.741 512.101 397.718V402.999ZM517.514 401.754C517.934 401.754 518.354 401.688 518.773 401.556V402.853C518.583 402.936 518.336 403.004 518.034 403.058C517.736 403.116 517.426 403.146 517.104 403.146C515.473 403.146 514.657 402.286 514.657 400.567V396.202H513.551V395.44L514.738 394.811L515.324 393.097H516.386V394.898H518.693V396.202H516.386V400.538C516.386 400.953 516.488 401.261 516.693 401.461C516.903 401.656 517.177 401.754 517.514 401.754ZM527.526 402.999H525.797V398.019C525.797 397.394 525.67 396.927 525.417 396.62C525.167 396.312 524.77 396.158 524.223 396.158C523.5 396.158 522.968 396.375 522.626 396.81C522.289 397.24 522.121 397.962 522.121 398.978V402.999H520.399V391.603H522.121V394.496C522.121 394.959 522.091 395.455 522.033 395.982H522.143C522.377 395.592 522.702 395.289 523.117 395.074C523.537 394.859 524.025 394.752 524.582 394.752C526.544 394.752 527.526 395.741 527.526 397.718V402.999ZM535.363 400.692C535.363 401.483 535.075 402.091 534.499 402.516C533.922 402.936 533.097 403.146 532.023 403.146C530.944 403.146 530.077 402.982 529.423 402.655V401.168C530.375 401.607 531.261 401.827 532.082 401.827C533.141 401.827 533.671 401.507 533.671 400.868C533.671 400.663 533.612 400.492 533.495 400.355C533.378 400.218 533.185 400.077 532.917 399.93C532.648 399.784 532.274 399.618 531.796 399.432C530.863 399.071 530.231 398.709 529.899 398.348C529.572 397.987 529.408 397.518 529.408 396.942C529.408 396.249 529.687 395.711 530.243 395.331C530.805 394.945 531.566 394.752 532.528 394.752C533.48 394.752 534.381 394.945 535.231 395.331L534.674 396.627C533.8 396.266 533.065 396.085 532.47 396.085C531.562 396.085 531.107 396.344 531.107 396.861C531.107 397.115 531.225 397.33 531.459 397.506C531.698 397.682 532.216 397.923 533.012 398.231C533.681 398.49 534.167 398.727 534.469 398.941C534.772 399.156 534.997 399.405 535.143 399.688C535.29 399.967 535.363 400.301 535.363 400.692Z" fill="#8083A3"/>
<path d="M67.6216 344.704C67.6216 346.185 67.3872 347.29 66.9185 348.021C66.4536 348.751 65.7407 349.116 64.7798 349.116C63.8579 349.116 63.1567 348.743 62.6763 347.997C62.1958 347.247 61.9556 346.149 61.9556 344.704C61.9556 343.212 62.188 342.104 62.6528 341.382C63.1177 340.659 63.8267 340.298 64.7798 340.298C65.7095 340.298 66.4146 340.675 66.895 341.429C67.3794 342.183 67.6216 343.274 67.6216 344.704ZM62.9399 344.704C62.9399 345.95 63.0864 346.858 63.3794 347.429C63.6724 347.995 64.1392 348.278 64.7798 348.278C65.4282 348.278 65.897 347.991 66.186 347.417C66.479 346.839 66.6255 345.935 66.6255 344.704C66.6255 343.474 66.479 342.573 66.186 342.003C65.897 341.429 65.4282 341.142 64.7798 341.142C64.1392 341.142 63.6724 341.425 63.3794 341.991C63.0864 342.554 62.9399 343.458 62.9399 344.704Z" fill="#8083A3"/>
<line x1="84.4502" y1="343.499" x2="970.45" y2="343.499" stroke="#D5D5DC" stroke-dasharray="2 2"/>
<path d="M60.4824 292.999H54.8516V292.161L57.1074 289.894C57.7949 289.198 58.248 288.702 58.4668 288.405C58.6855 288.108 58.8496 287.819 58.959 287.538C59.0684 287.257 59.123 286.954 59.123 286.63C59.123 286.173 58.9844 285.812 58.707 285.546C58.4297 285.276 58.0449 285.142 57.5527 285.142C57.1973 285.142 56.8594 285.2 56.5391 285.317C56.2227 285.435 55.8691 285.647 55.4785 285.956L54.9629 285.294C55.752 284.638 56.6113 284.31 57.541 284.31C58.3457 284.31 58.9766 284.517 59.4336 284.931C59.8906 285.341 60.1191 285.894 60.1191 286.589C60.1191 287.132 59.9668 287.669 59.6621 288.2C59.3574 288.731 58.7871 289.403 57.9512 290.216L56.0762 292.05V292.097H60.4824V292.999ZM67.3965 288.704C67.3965 290.185 67.1621 291.29 66.6934 292.021C66.2285 292.751 65.5156 293.116 64.5547 293.116C63.6328 293.116 62.9316 292.743 62.4512 291.997C61.9707 291.247 61.7305 290.149 61.7305 288.704C61.7305 287.212 61.9629 286.104 62.4277 285.382C62.8926 284.659 63.6016 284.298 64.5547 284.298C65.4844 284.298 66.1895 284.675 66.6699 285.429C67.1543 286.183 67.3965 287.274 67.3965 288.704ZM62.7148 288.704C62.7148 289.95 62.8613 290.858 63.1543 291.429C63.4473 291.995 63.9141 292.278 64.5547 292.278C65.2031 292.278 65.6719 291.991 65.9609 291.417C66.2539 290.839 66.4004 289.935 66.4004 288.704C66.4004 287.474 66.2539 286.573 65.9609 286.003C65.6719 285.429 65.2031 285.142 64.5547 285.142C63.9141 285.142 63.4473 285.425 63.1543 285.991C62.8613 286.554 62.7148 287.458 62.7148 288.704Z" fill="#8083A3"/>
<line x1="84.2251" y1="287.499" x2="970.225" y2="287.499" stroke="#D5D5DC" stroke-dasharray="2 2"/>
<path d="M60.8867 235.03H59.6152V236.999H58.6836V235.03H54.5176V234.181L58.584 228.386H59.6152V234.146H60.8867V235.03ZM58.6836 234.146V231.298C58.6836 230.739 58.7031 230.108 58.7422 229.405H58.6953C58.5078 229.78 58.332 230.091 58.168 230.337L55.4902 234.146H58.6836ZM67.3965 232.704C67.3965 234.185 67.1621 235.29 66.6934 236.021C66.2285 236.751 65.5156 237.116 64.5547 237.116C63.6328 237.116 62.9316 236.743 62.4512 235.997C61.9707 235.247 61.7305 234.149 61.7305 232.704C61.7305 231.212 61.9629 230.104 62.4277 229.382C62.8926 228.659 63.6016 228.298 64.5547 228.298C65.4844 228.298 66.1895 228.675 66.6699 229.429C67.1543 230.183 67.3965 231.274 67.3965 232.704ZM62.7148 232.704C62.7148 233.95 62.8613 234.858 63.1543 235.429C63.4473 235.995 63.9141 236.278 64.5547 236.278C65.2031 236.278 65.6719 235.991 65.9609 235.417C66.2539 234.839 66.4004 233.935 66.4004 232.704C66.4004 231.474 66.2539 230.573 65.9609 230.003C65.6719 229.429 65.2031 229.142 64.5547 229.142C63.9141 229.142 63.4473 229.425 63.1543 229.991C62.8613 230.554 62.7148 231.458 62.7148 232.704Z" fill="#8083A3"/>
<line x1="84.2251" y1="231.499" x2="970.225" y2="231.499" stroke="#D5D5DC" stroke-dasharray="2 2"/>
<path d="M54.9512 177.337C54.9512 175.653 55.2773 174.396 55.9297 173.563C56.5859 172.728 57.5547 172.31 58.8359 172.31C59.2773 172.31 59.625 172.347 59.8789 172.421V173.259C59.5781 173.161 59.2344 173.112 58.8477 173.112C57.9297 173.112 57.2285 173.399 56.7441 173.974C56.2598 174.544 55.9941 175.442 55.9473 176.669H56.0176C56.4473 175.997 57.127 175.661 58.0566 175.661C58.8262 175.661 59.4316 175.894 59.873 176.358C60.3184 176.823 60.541 177.454 60.541 178.251C60.541 179.142 60.2969 179.843 59.8086 180.354C59.3242 180.862 58.668 181.116 57.8398 181.116C56.9531 181.116 56.25 180.784 55.7305 180.12C55.2109 179.452 54.9512 178.524 54.9512 177.337ZM57.8281 180.29C58.3828 180.29 58.8125 180.116 59.1172 179.769C59.4258 179.417 59.5801 178.911 59.5801 178.251C59.5801 177.685 59.4375 177.239 59.1523 176.915C58.8672 176.591 58.4414 176.429 57.875 176.429C57.5234 176.429 57.2012 176.501 56.9082 176.646C56.6152 176.79 56.3809 176.989 56.2051 177.243C56.0332 177.497 55.9473 177.761 55.9473 178.034C55.9473 178.437 56.0254 178.812 56.1816 179.159C56.3379 179.507 56.5586 179.782 56.8438 179.985C57.1328 180.188 57.4609 180.29 57.8281 180.29ZM67.3965 176.704C67.3965 178.185 67.1621 179.29 66.6934 180.021C66.2285 180.751 65.5156 181.116 64.5547 181.116C63.6328 181.116 62.9316 180.743 62.4512 179.997C61.9707 179.247 61.7305 178.149 61.7305 176.704C61.7305 175.212 61.9629 174.104 62.4277 173.382C62.8926 172.659 63.6016 172.298 64.5547 172.298C65.4844 172.298 66.1895 172.675 66.6699 173.429C67.1543 174.183 67.3965 175.274 67.3965 176.704ZM62.7148 176.704C62.7148 177.95 62.8613 178.858 63.1543 179.429C63.4473 179.995 63.9141 180.278 64.5547 180.278C65.2031 180.278 65.6719 179.991 65.9609 179.417C66.2539 178.839 66.4004 177.935 66.4004 176.704C66.4004 175.474 66.2539 174.573 65.9609 174.003C65.6719 173.429 65.2031 173.142 64.5547 173.142C63.9141 173.142 63.4473 173.425 63.1543 173.991C62.8613 174.554 62.7148 175.458 62.7148 176.704Z" fill="#8083A3"/>
<line x1="84.2251" y1="175.499" x2="970.225" y2="175.499" stroke="#D5D5DC" stroke-dasharray="2 2"/>
<path d="M57.6875 116.31C58.4688 116.31 59.0879 116.491 59.5449 116.854C60.002 117.218 60.2305 117.72 60.2305 118.36C60.2305 118.782 60.0996 119.167 59.8379 119.515C59.5762 119.862 59.1582 120.179 58.584 120.464C59.2793 120.796 59.7734 121.146 60.0664 121.513C60.3594 121.876 60.5059 122.298 60.5059 122.778C60.5059 123.489 60.2578 124.058 59.7617 124.483C59.2656 124.905 58.5859 125.116 57.7227 125.116C56.8086 125.116 56.1055 124.917 55.6133 124.519C55.1211 124.116 54.875 123.548 54.875 122.813C54.875 121.833 55.4727 121.069 56.668 120.522C56.1289 120.218 55.7422 119.89 55.5078 119.538C55.2734 119.183 55.1562 118.786 55.1562 118.349C55.1562 117.728 55.3848 117.233 55.8418 116.866C56.3027 116.495 56.918 116.31 57.6875 116.31ZM55.8359 122.837C55.8359 123.306 55.998 123.671 56.3223 123.933C56.6504 124.194 57.1094 124.325 57.6992 124.325C58.2812 124.325 58.7344 124.188 59.0586 123.915C59.3828 123.642 59.5449 123.267 59.5449 122.79C59.5449 122.411 59.3926 122.075 59.0879 121.782C58.7832 121.485 58.252 121.198 57.4941 120.921C56.9121 121.171 56.4902 121.448 56.2285 121.753C55.9668 122.054 55.8359 122.415 55.8359 122.837ZM57.6758 117.101C57.1875 117.101 56.8047 117.218 56.5273 117.452C56.25 117.687 56.1113 117.999 56.1113 118.39C56.1113 118.749 56.2266 119.058 56.457 119.315C56.6875 119.573 57.1133 119.831 57.7344 120.089C58.293 119.854 58.6875 119.603 58.918 119.333C59.1523 119.063 59.2695 118.749 59.2695 118.39C59.2695 117.995 59.127 117.683 58.8418 117.452C58.5605 117.218 58.1719 117.101 57.6758 117.101ZM67.3965 120.704C67.3965 122.185 67.1621 123.29 66.6934 124.021C66.2285 124.751 65.5156 125.116 64.5547 125.116C63.6328 125.116 62.9316 124.743 62.4512 123.997C61.9707 123.247 61.7305 122.149 61.7305 120.704C61.7305 119.212 61.9629 118.104 62.4277 117.382C62.8926 116.659 63.6016 116.298 64.5547 116.298C65.4844 116.298 66.1895 116.675 66.6699 117.429C67.1543 118.183 67.3965 119.274 67.3965 120.704ZM62.7148 120.704C62.7148 121.95 62.8613 122.858 63.1543 123.429C63.4473 123.995 63.9141 124.278 64.5547 124.278C65.2031 124.278 65.6719 123.991 65.9609 123.417C66.2539 122.839 66.4004 121.935 66.4004 120.704C66.4004 119.474 66.2539 118.573 65.9609 118.003C65.6719 117.429 65.2031 117.142 64.5547 117.142C63.9141 117.142 63.4473 117.425 63.1543 117.991C62.8613 118.554 62.7148 119.458 62.7148 120.704Z" fill="#8083A3"/>
<line x1="84.2251" y1="119.499" x2="970.225" y2="119.499" stroke="#D5D5DC" stroke-dasharray="2 2"/>
<path d="M51.5879 68.999H50.6387V62.8936C50.6387 62.3857 50.6543 61.9053 50.6855 61.4521C50.6035 61.5342 50.5117 61.6201 50.4102 61.71C50.3086 61.7998 49.8438 62.1807 49.0156 62.8525L48.5 62.1846L50.7676 60.4326H51.5879V68.999ZM60.5293 64.7041C60.5293 66.1846 60.2949 67.29 59.8262 68.0205C59.3613 68.751 58.6484 69.1162 57.6875 69.1162C56.7656 69.1162 56.0645 68.7432 55.584 67.9971C55.1035 67.2471 54.8633 66.1494 54.8633 64.7041C54.8633 63.2119 55.0957 62.1045 55.5605 61.3818C56.0254 60.6592 56.7344 60.2979 57.6875 60.2979C58.6172 60.2979 59.3223 60.6748 59.8027 61.4287C60.2871 62.1826 60.5293 63.2744 60.5293 64.7041ZM55.8477 64.7041C55.8477 65.9502 55.9941 66.8584 56.2871 67.4287C56.5801 67.9951 57.0469 68.2783 57.6875 68.2783C58.3359 68.2783 58.8047 67.9912 59.0938 67.417C59.3867 66.8389 59.5332 65.9346 59.5332 64.7041C59.5332 63.4736 59.3867 62.5732 59.0938 62.0029C58.8047 61.4287 58.3359 61.1416 57.6875 61.1416C57.0469 61.1416 56.5801 61.4248 56.2871 61.9912C55.9941 62.5537 55.8477 63.458 55.8477 64.7041ZM67.3965 64.7041C67.3965 66.1846 67.1621 67.29 66.6934 68.0205C66.2285 68.751 65.5156 69.1162 64.5547 69.1162C63.6328 69.1162 62.9316 68.7432 62.4512 67.9971C61.9707 67.2471 61.7305 66.1494 61.7305 64.7041C61.7305 63.2119 61.9629 62.1045 62.4277 61.3818C62.8926 60.6592 63.6016 60.2979 64.5547 60.2979C65.4844 60.2979 66.1895 60.6748 66.6699 61.4287C67.1543 62.1826 67.3965 63.2744 67.3965 64.7041ZM62.7148 64.7041C62.7148 65.9502 62.8613 66.8584 63.1543 67.4287C63.4473 67.9951 63.9141 68.2783 64.5547 68.2783C65.2031 68.2783 65.6719 67.9912 65.9609 67.417C66.2539 66.8389 66.4004 65.9346 66.4004 64.7041C66.4004 63.4736 66.2539 62.5732 65.9609 62.0029C65.6719 61.4287 65.2031 61.1416 64.5547 61.1416C63.9141 61.1416 63.4473 61.4248 63.1543 61.9912C62.8613 62.5537 62.7148 63.458 62.7148 64.7041Z" fill="#8083A3"/>
<line x1="84.2251" y1="63.499" x2="970.225" y2="63.499" stroke="#D5D5DC" stroke-dasharray="2 2"/>
<path d="M51.5879 12.999H50.6387V6.89355C50.6387 6.38574 50.6543 5.90527 50.6855 5.45215C50.6035 5.53418 50.5117 5.62012 50.4102 5.70996C50.3086 5.7998 49.8438 6.18066 49.0156 6.85254L48.5 6.18457L50.7676 4.43262H51.5879V12.999ZM60.4824 12.999H54.8516V12.1611L57.1074 9.89355C57.7949 9.19824 58.248 8.70215 58.4668 8.40527C58.6855 8.1084 58.8496 7.81934 58.959 7.53809C59.0684 7.25684 59.123 6.9541 59.123 6.62988C59.123 6.17285 58.9844 5.81152 58.707 5.5459C58.4297 5.27637 58.0449 5.1416 57.5527 5.1416C57.1973 5.1416 56.8594 5.2002 56.5391 5.31738C56.2227 5.43457 55.8691 5.64746 55.4785 5.95605L54.9629 5.29395C55.752 4.6377 56.6113 4.30957 57.541 4.30957C58.3457 4.30957 58.9766 4.5166 59.4336 4.93066C59.8906 5.34082 60.1191 5.89355 60.1191 6.58887C60.1191 7.13184 59.9668 7.66895 59.6621 8.2002C59.3574 8.73145 58.7871 9.40332 57.9512 10.2158L56.0762 12.0498V12.0967H60.4824V12.999ZM67.3965 8.7041C67.3965 10.1846 67.1621 11.29 66.6934 12.0205C66.2285 12.751 65.5156 13.1162 64.5547 13.1162C63.6328 13.1162 62.9316 12.7432 62.4512 11.9971C61.9707 11.2471 61.7305 10.1494 61.7305 8.7041C61.7305 7.21191 61.9629 6.10449 62.4277 5.38184C62.8926 4.65918 63.6016 4.29785 64.5547 4.29785C65.4844 4.29785 66.1895 4.6748 66.6699 5.42871C67.1543 6.18262 67.3965 7.27441 67.3965 8.7041ZM62.7148 8.7041C62.7148 9.9502 62.8613 10.8584 63.1543 11.4287C63.4473 11.9951 63.9141 12.2783 64.5547 12.2783C65.2031 12.2783 65.6719 11.9912 65.9609 11.417C66.2539 10.8389 66.4004 9.93457 66.4004 8.7041C66.4004 7.47363 66.2539 6.57324 65.9609 6.00293C65.6719 5.42871 65.2031 5.1416 64.5547 5.1416C63.9141 5.1416 63.4473 5.4248 63.1543 5.99121C62.8613 6.55371 62.7148 7.45801 62.7148 8.7041Z" fill="#8083A3"/>
<line x1="84.2251" y1="7.49902" x2="970.225" y2="7.49902" stroke="#D5D5DC" stroke-dasharray="2 2"/>
<path fill-rule="evenodd" clip-rule="evenodd" d="M144 340.999V343.999H143V340.999H144Z" fill="#D5D5DC"/>
<path d="M135.299 363.255C134.932 363.255 134.643 363.202 134.432 363.097V362.247C134.709 362.325 134.998 362.364 135.299 362.364C135.686 362.364 135.979 362.247 136.178 362.013C136.381 361.778 136.482 361.44 136.482 360.999V352.433H137.479V360.917C137.479 361.659 137.291 362.233 136.916 362.64C136.541 363.05 136.002 363.255 135.299 363.255ZM143.561 360.999L143.367 360.085H143.32C143 360.487 142.68 360.761 142.359 360.905C142.043 361.046 141.646 361.116 141.17 361.116C140.533 361.116 140.033 360.952 139.67 360.624C139.311 360.296 139.131 359.829 139.131 359.224C139.131 357.927 140.168 357.247 142.242 357.185L143.332 357.149V356.751C143.332 356.247 143.223 355.876 143.004 355.638C142.789 355.396 142.443 355.274 141.967 355.274C141.432 355.274 140.826 355.438 140.15 355.767L139.852 355.022C140.168 354.851 140.514 354.716 140.889 354.618C141.268 354.521 141.646 354.472 142.025 354.472C142.791 354.472 143.357 354.642 143.725 354.981C144.096 355.321 144.281 355.866 144.281 356.616V360.999H143.561ZM141.363 360.313C141.969 360.313 142.443 360.147 142.787 359.815C143.135 359.483 143.309 359.019 143.309 358.421V357.841L142.336 357.882C141.562 357.909 141.004 358.03 140.66 358.245C140.32 358.456 140.15 358.786 140.15 359.235C140.15 359.587 140.256 359.854 140.467 360.038C140.682 360.222 140.98 360.313 141.363 360.313ZM150.686 360.999V356.845C150.686 356.321 150.566 355.931 150.328 355.673C150.09 355.415 149.717 355.286 149.209 355.286C148.537 355.286 148.045 355.468 147.732 355.831C147.42 356.194 147.264 356.794 147.264 357.63V360.999H146.291V354.577H147.082L147.24 355.456H147.287C147.486 355.14 147.766 354.896 148.125 354.724C148.484 354.548 148.885 354.46 149.326 354.46C150.1 354.46 150.682 354.647 151.072 355.022C151.463 355.394 151.658 355.989 151.658 356.81V360.999H150.686Z" fill="#8083A3"/>
<rect x="114" y="287.999" width="30" height="56" fill="#00BCD8"/>
<rect x="144" y="321.999" width="31" height="22" fill="#0076BC"/>
<path fill-rule="evenodd" clip-rule="evenodd" d="M256 340.999V343.999H255V340.999H256Z" fill="#D5D5DC"/>
<path d="M248.525 360.999H247.529V352.433H252.305V353.317H248.525V356.452H252.076V357.337H248.525V360.999ZM256.295 361.116C255.346 361.116 254.596 360.827 254.045 360.249C253.498 359.671 253.225 358.868 253.225 357.841C253.225 356.806 253.479 355.983 253.986 355.374C254.498 354.765 255.184 354.46 256.043 354.46C256.848 354.46 257.484 354.726 257.953 355.257C258.422 355.784 258.656 356.481 258.656 357.349V357.964H254.232C254.252 358.718 254.441 359.29 254.801 359.681C255.164 360.071 255.674 360.267 256.33 360.267C257.021 360.267 257.705 360.122 258.381 359.833V360.7C258.037 360.849 257.711 360.954 257.402 361.017C257.098 361.083 256.729 361.116 256.295 361.116ZM256.031 355.274C255.516 355.274 255.104 355.442 254.795 355.778C254.49 356.114 254.311 356.579 254.256 357.173H257.613C257.613 356.56 257.477 356.091 257.203 355.767C256.93 355.438 256.539 355.274 256.031 355.274ZM263.309 354.472C264.152 354.472 264.807 354.761 265.271 355.339C265.74 355.913 265.975 356.728 265.975 357.782C265.975 358.837 265.738 359.657 265.266 360.243C264.797 360.825 264.145 361.116 263.309 361.116C262.891 361.116 262.508 361.04 262.16 360.888C261.816 360.731 261.527 360.493 261.293 360.173H261.223L261.018 360.999H260.32V351.882H261.293V354.097C261.293 354.593 261.277 355.038 261.246 355.433H261.293C261.746 354.792 262.418 354.472 263.309 354.472ZM263.168 355.286C262.504 355.286 262.025 355.478 261.732 355.86C261.439 356.239 261.293 356.88 261.293 357.782C261.293 358.685 261.443 359.331 261.744 359.722C262.045 360.108 262.527 360.302 263.191 360.302C263.789 360.302 264.234 360.085 264.527 359.651C264.82 359.214 264.967 358.587 264.967 357.771C264.967 356.935 264.82 356.312 264.527 355.901C264.234 355.491 263.781 355.286 263.168 355.286Z" fill="#8083A3"/>
<rect x="226" y="236.999" width="30" height="107" fill="#00BCD8"/>
<rect x="256" y="197.999" width="31" height="146" fill="#0076BC"/>
<path fill-rule="evenodd" clip-rule="evenodd" d="M368 340.999V343.999H367V340.999H368Z" fill="#D5D5DC"/>
<path d="M362.26 360.999L359.354 353.405H359.307C359.361 354.007 359.389 354.722 359.389 355.55V360.999H358.469V352.433H359.969L362.682 359.499H362.729L365.465 352.433H366.953V360.999H365.957V355.479C365.957 354.847 365.984 354.159 366.039 353.417H365.992L363.062 360.999H362.26ZM373.111 360.999L372.918 360.085H372.871C372.551 360.487 372.23 360.761 371.91 360.905C371.594 361.046 371.197 361.116 370.721 361.116C370.084 361.116 369.584 360.952 369.221 360.624C368.861 360.296 368.682 359.829 368.682 359.224C368.682 357.927 369.719 357.247 371.793 357.185L372.883 357.149V356.751C372.883 356.247 372.773 355.876 372.555 355.638C372.34 355.396 371.994 355.274 371.518 355.274C370.982 355.274 370.377 355.438 369.701 355.767L369.402 355.022C369.719 354.851 370.064 354.716 370.439 354.618C370.818 354.521 371.197 354.472 371.576 354.472C372.342 354.472 372.908 354.642 373.275 354.981C373.646 355.321 373.832 355.866 373.832 356.616V360.999H373.111ZM370.914 360.313C371.52 360.313 371.994 360.147 372.338 359.815C372.686 359.483 372.859 359.019 372.859 358.421V357.841L371.887 357.882C371.113 357.909 370.555 358.03 370.211 358.245C369.871 358.456 369.701 358.786 369.701 359.235C369.701 359.587 369.807 359.854 370.018 360.038C370.232 360.222 370.531 360.313 370.914 360.313ZM378.771 354.46C379.057 354.46 379.312 354.483 379.539 354.53L379.404 355.433C379.139 355.374 378.904 355.345 378.701 355.345C378.182 355.345 377.736 355.556 377.365 355.978C376.998 356.399 376.814 356.925 376.814 357.554V360.999H375.842V354.577H376.645L376.756 355.767H376.803C377.041 355.349 377.328 355.026 377.664 354.8C378 354.573 378.369 354.46 378.771 354.46Z" fill="#8083A3"/>
<rect x="338" y="127.999" width="30.5" height="216" fill="#00BCD8"/>
<rect x="368.5" y="203.348" width="30.5" height="140.651" fill="#0076BC"/>
<path fill-rule="evenodd" clip-rule="evenodd" d="M480 340.999V343.999H479V340.999H480Z" fill="#D5D5DC"/>
<path d="M476.637 360.999L475.57 358.274H472.137L471.082 360.999H470.074L473.461 352.397H474.299L477.668 360.999H476.637ZM475.26 357.378L474.264 354.724C474.135 354.388 474.002 353.976 473.865 353.487C473.779 353.862 473.656 354.274 473.496 354.724L472.488 357.378H475.26ZM481.688 361.116C481.27 361.116 480.887 361.04 480.539 360.888C480.195 360.731 479.906 360.493 479.672 360.173H479.602C479.648 360.548 479.672 360.903 479.672 361.239V363.882H478.699V354.577H479.49L479.625 355.456H479.672C479.922 355.104 480.213 354.851 480.545 354.694C480.877 354.538 481.258 354.46 481.688 354.46C482.539 354.46 483.195 354.751 483.656 355.333C484.121 355.915 484.354 356.731 484.354 357.782C484.354 358.837 484.117 359.657 483.645 360.243C483.176 360.825 482.523 361.116 481.688 361.116ZM481.547 355.286C480.891 355.286 480.416 355.468 480.123 355.831C479.83 356.194 479.68 356.772 479.672 357.565V357.782C479.672 358.685 479.822 359.331 480.123 359.722C480.424 360.108 480.906 360.302 481.57 360.302C482.125 360.302 482.559 360.077 482.871 359.628C483.188 359.179 483.346 358.56 483.346 357.771C483.346 356.97 483.188 356.356 482.871 355.931C482.559 355.501 482.117 355.286 481.547 355.286ZM488.988 354.46C489.273 354.46 489.529 354.483 489.756 354.53L489.621 355.433C489.355 355.374 489.121 355.345 488.918 355.345C488.398 355.345 487.953 355.556 487.582 355.978C487.215 356.399 487.031 356.925 487.031 357.554V360.999H486.059V354.577H486.861L486.973 355.767H487.02C487.258 355.349 487.545 355.026 487.881 354.8C488.217 354.573 488.586 354.46 488.988 354.46Z" fill="#8083A3"/>
<rect x="450" y="127.999" width="30.5" height="216" fill="#00BCD8"/>
<rect x="480.5" y="203.348" width="30.5" height="140.651" fill="#0076BC"/>
<path fill-rule="evenodd" clip-rule="evenodd" d="M592 340.999V343.999H591V340.999H592Z" fill="#D5D5DC"/>
<path d="M585.186 360.999L582.279 353.405H582.232C582.287 354.007 582.314 354.722 582.314 355.55V360.999H581.395V352.433H582.895L585.607 359.499H585.654L588.391 352.433H589.879V360.999H588.883V355.479C588.883 354.847 588.91 354.159 588.965 353.417H588.918L585.988 360.999H585.186ZM596.037 360.999L595.844 360.085H595.797C595.477 360.487 595.156 360.761 594.836 360.905C594.52 361.046 594.123 361.116 593.646 361.116C593.01 361.116 592.51 360.952 592.146 360.624C591.787 360.296 591.607 359.829 591.607 359.224C591.607 357.927 592.645 357.247 594.719 357.185L595.809 357.149V356.751C595.809 356.247 595.699 355.876 595.48 355.638C595.266 355.396 594.92 355.274 594.443 355.274C593.908 355.274 593.303 355.438 592.627 355.767L592.328 355.022C592.645 354.851 592.99 354.716 593.365 354.618C593.744 354.521 594.123 354.472 594.502 354.472C595.268 354.472 595.834 354.642 596.201 354.981C596.572 355.321 596.758 355.866 596.758 356.616V360.999H596.037ZM593.84 360.313C594.445 360.313 594.92 360.147 595.264 359.815C595.611 359.483 595.785 359.019 595.785 358.421V357.841L594.812 357.882C594.039 357.909 593.48 358.03 593.137 358.245C592.797 358.456 592.627 358.786 592.627 359.235C592.627 359.587 592.732 359.854 592.943 360.038C593.158 360.222 593.457 360.313 593.84 360.313ZM597.748 354.577H598.791L600.197 358.239C600.506 359.075 600.697 359.679 600.771 360.05H600.818C600.869 359.851 600.975 359.511 601.135 359.03C601.299 358.546 601.83 357.062 602.729 354.577H603.771L601.012 361.89C600.738 362.612 600.418 363.124 600.051 363.425C599.688 363.729 599.24 363.882 598.709 363.882C598.412 363.882 598.119 363.849 597.83 363.782V363.003C598.045 363.05 598.285 363.073 598.551 363.073C599.219 363.073 599.695 362.698 599.98 361.948L600.338 361.034L597.748 354.577Z" fill="#8083A3"/>
<rect x="562" y="127.999" width="30.5" height="216" fill="#00BCD8"/>
<rect x="592.5" y="203.348" width="30.5" height="140.651" fill="#0076BC"/>
<path fill-rule="evenodd" clip-rule="evenodd" d="M704 340.999V343.999H703V340.999H704Z" fill="#D5D5DC"/>
<path d="M694.953 363.255C694.586 363.255 694.297 363.202 694.086 363.097V362.247C694.363 362.325 694.652 362.364 694.953 362.364C695.34 362.364 695.633 362.247 695.832 362.013C696.035 361.778 696.137 361.44 696.137 360.999V352.433H697.133V360.917C697.133 361.659 696.945 362.233 696.57 362.64C696.195 363.05 695.656 363.255 694.953 363.255ZM700.18 354.577V358.743C700.18 359.267 700.299 359.657 700.537 359.915C700.775 360.173 701.148 360.302 701.656 360.302C702.328 360.302 702.818 360.118 703.127 359.751C703.439 359.384 703.596 358.784 703.596 357.952V354.577H704.568V360.999H703.766L703.625 360.138H703.572C703.373 360.454 703.096 360.696 702.74 360.864C702.389 361.032 701.986 361.116 701.533 361.116C700.752 361.116 700.166 360.931 699.775 360.56C699.389 360.188 699.195 359.595 699.195 358.778V354.577H700.18ZM711.031 360.999V356.845C711.031 356.321 710.912 355.931 710.674 355.673C710.436 355.415 710.062 355.286 709.555 355.286C708.883 355.286 708.391 355.468 708.078 355.831C707.766 356.194 707.609 356.794 707.609 357.63V360.999H706.637V354.577H707.428L707.586 355.456H707.633C707.832 355.14 708.111 354.896 708.471 354.724C708.83 354.548 709.23 354.46 709.672 354.46C710.445 354.46 711.027 354.647 711.418 355.022C711.809 355.394 712.004 355.989 712.004 356.81V360.999H711.031Z" fill="#8083A3"/>
<rect x="674" y="127.999" width="30.5" height="216" fill="#00BCD8"/>
<rect x="704.5" y="203.348" width="30.5" height="140.651" fill="#0076BC"/>
</svg>
