<svg width="246" height="207" viewBox="0 0 246 207" fill="none" xmlns="http://www.w3.org/2000/svg">
<path d="M215.317 207C230.117 207 242.116 206.173 242.116 205.152C242.116 204.131 230.117 203.304 215.317 203.304C200.516 203.304 188.518 204.131 188.518 205.152C188.518 206.173 200.516 207 215.317 207Z" fill="#E2E2EA"/>
<path d="M85.9417 207C100.742 207 112.741 206.173 112.741 205.152C112.741 204.131 100.742 203.304 85.9417 203.304C71.1409 203.304 59.1426 204.131 59.1426 205.152C59.1426 206.173 71.1409 207 85.9417 207Z" fill="#E2E2EA"/>
<path fill-rule="evenodd" clip-rule="evenodd" d="M23.1814 180.201H204.148C205.722 180.199 206.998 178.918 207 177.338V2.86336C206.998 1.28269 205.722 0.00172538 204.148 0H23.1814C21.6074 0.00172538 20.3318 1.28269 20.3301 2.86336V177.338C20.3318 178.918 21.6074 180.199 23.1814 180.201ZM21.4711 2.86334C21.4721 1.91493 22.2374 1.14636 23.1819 1.14532H204.149C205.093 1.14635 205.859 1.91493 205.86 2.86334V177.338C205.859 178.286 205.093 179.054 204.149 179.056H23.1819C22.2374 179.054 21.4721 178.286 21.4711 177.338V2.86334Z" fill="#E2E2EA"/>
<path d="M33.4953 14.7858C32.8596 14.7865 32.3444 15.3016 32.3438 15.9373V63.536C32.3444 64.1717 32.8596 64.6869 33.4953 64.6876H81.094C81.7297 64.6869 82.2448 64.1717 82.2455 63.536V15.9373C82.2448 15.3016 81.7297 14.7865 81.094 14.7858H33.4953Z" fill="#E2E2EA"/>
<path d="M107.622 49.9019C106.873 49.9145 106.272 50.5313 106.272 51.2879C106.272 52.0444 106.873 52.6612 107.622 52.6738H172.333C172.825 52.6832 173.283 52.4269 173.536 52.0016C173.789 51.5764 173.798 51.047 173.559 50.6136C173.32 50.1802 172.87 49.9088 172.379 49.9019C172.364 49.9017 172.349 49.9017 172.333 49.9019H107.622Z" fill="#E2E2EA"/>
<path d="M107.622 36.9644C106.873 36.977 106.272 37.5938 106.272 38.3504C106.272 39.1069 106.873 39.7237 107.622 39.7363H126.128C126.62 39.7457 127.078 39.4894 127.331 39.0641C127.584 38.6389 127.593 38.1095 127.354 37.6761C127.115 37.2427 126.665 36.9713 126.173 36.9644C126.158 36.9642 126.143 36.9642 126.128 36.9644H107.622Z" fill="#E2E2EA"/>
<path d="M107.623 62.8394C106.873 62.852 106.272 63.4688 106.272 64.2254C106.272 64.982 106.873 65.5989 107.623 65.6114H172.34C173.097 65.622 173.72 65.0122 173.732 64.2481C173.745 63.484 173.142 62.8539 172.385 62.8394C172.37 62.8392 172.355 62.8392 172.34 62.8394H107.623Z" fill="#E2E2EA"/>
<path d="M185.348 112.741H95.5811C93.8312 112.741 92.413 111.731 92.4111 110.485V90.97C92.413 89.7247 93.8312 88.7142 95.5811 88.7142H185.348C187.098 88.7142 188.516 89.7247 188.518 90.97V110.485C188.517 111.73 187.098 112.739 185.348 112.741Z" fill="#E2E2EA"/>
<path d="M124.357 159.871H34.5899C32.84 159.871 31.4218 158.86 31.4199 157.615V138.1C31.4218 136.854 32.84 135.844 34.5899 135.844H124.357C126.107 135.844 127.525 136.854 127.527 138.1V157.614C127.526 158.86 126.107 159.869 124.357 159.871Z" fill="#E2E2EA"/>
<path fill-rule="evenodd" clip-rule="evenodd" d="M7.79013 170.036H97.5572C99.3072 170.034 100.726 169.025 100.727 167.78V148.265C100.725 147.019 99.3072 146.009 97.5572 146.009H7.79013C6.04018 146.009 4.62203 147.019 4.62012 148.265V167.78C4.62203 169.025 6.04018 170.036 7.79013 170.036ZM5.88848 148.264C5.88962 147.517 6.74051 146.91 7.79056 146.91L97.5577 146.911C98.6077 146.912 99.4598 147.518 99.4598 148.265V167.779C99.4586 168.526 98.6077 169.132 97.5577 169.132H7.79056C6.74051 169.131 5.88848 168.526 5.88848 167.779V148.264Z" fill="#2A2B38"/>
<path d="M129.375 117.362C133.458 117.362 136.768 114.052 136.768 109.969C136.768 105.886 133.458 102.576 129.375 102.576C125.292 102.576 121.982 105.886 121.982 109.969C121.982 114.052 125.292 117.362 129.375 117.362Z" fill="#00BCD8"/>
<path d="M21.2542 165.415C25.3371 165.415 28.647 162.105 28.647 158.022C28.647 153.939 25.3371 150.63 21.2542 150.63C17.1712 150.63 13.8613 153.939 13.8613 158.022C13.8613 162.105 17.1712 165.415 21.2542 165.415Z" fill="#00BCD8"/>
<path d="M145.519 104.424C144.766 104.437 144.161 105.054 144.161 105.81C144.161 106.567 144.766 107.184 145.519 107.196H197.283C198.045 107.207 198.671 106.597 198.683 105.833C198.696 105.069 198.09 104.439 197.329 104.424C197.314 104.424 197.298 104.424 197.283 104.424H145.519Z" fill="#2A2B38"/>
<path d="M145.519 111.817C144.766 111.83 144.161 112.447 144.161 113.203C144.161 113.96 144.766 114.577 145.519 114.589H197.283C198.045 114.6 198.671 113.99 198.683 113.226C198.696 112.462 198.09 111.832 197.329 111.817C197.314 111.817 197.298 111.817 197.283 111.817H145.519Z" fill="#2A2B38"/>
<path d="M36.4743 153.402C35.7206 153.414 35.1162 154.031 35.1162 154.788C35.1162 155.545 35.7206 156.161 36.4743 156.174H88.2384C88.9996 156.185 89.6258 155.575 89.6383 154.811C89.6508 154.047 89.0449 153.416 88.2837 153.402C88.2686 153.402 88.2535 153.402 88.2384 153.402H36.4743Z" fill="#2A2B38"/>
<path d="M36.4743 160.795C35.7206 160.807 35.1162 161.424 35.1162 162.181C35.1162 162.937 35.7206 163.554 36.4743 163.567H88.2384C88.9996 163.577 89.6258 162.968 89.6383 162.204C89.6508 161.439 89.0449 160.809 88.2837 160.795C88.2686 160.795 88.2535 160.795 88.2384 160.795H36.4743Z" fill="#2A2B38"/>
<path d="M216.703 197.759C225.635 197.759 232.875 190.312 232.875 181.125C232.875 171.938 225.635 164.491 216.703 164.491C207.772 164.491 200.531 171.938 200.531 181.125C200.531 190.312 207.772 197.759 216.703 197.759Z" fill="#2A2B38"/>
<rect x="219.014" y="194.062" width="4.62054" height="9.24107" fill="#2A2B38"/>
<rect x="208.849" y="194.062" width="4.62054" height="9.24107" fill="#2A2B38"/>
<path d="M219.476 205.152C221.773 205.152 223.634 204.531 223.634 203.766C223.634 203 221.773 202.38 219.476 202.38C217.179 202.38 215.317 203 215.317 203.766C215.317 204.531 217.179 205.152 219.476 205.152Z" fill="#2A2B38"/>
<path d="M210.235 204.228C212.531 204.228 214.393 203.607 214.393 202.841C214.393 202.076 212.531 201.455 210.235 201.455C207.938 201.455 206.076 202.076 206.076 202.841C206.076 203.607 207.938 204.228 210.235 204.228Z" fill="#2A2B38"/>
<path d="M216.241 182.973C219.303 182.973 221.786 180.491 221.786 177.429C221.786 174.366 219.303 171.884 216.241 171.884C213.179 171.884 210.696 174.366 210.696 177.429C210.696 180.491 213.179 182.973 216.241 182.973Z" fill="white"/>
<path d="M216.241 179.277C217.262 179.277 218.089 178.449 218.089 177.429C218.089 176.408 217.262 175.58 216.241 175.58C215.22 175.58 214.393 176.408 214.393 177.429C214.393 178.449 215.22 179.277 216.241 179.277Z" fill="#2A2B38"/>
<path d="M232.635 165.917C233.95 160.103 229.745 154.228 223.242 152.795C216.739 151.362 210.401 154.914 209.085 160.728C207.77 166.542 212.079 168.686 218.582 170.119C225.085 171.552 231.319 171.731 232.635 165.917Z" fill="#E2E2EA"/>
<path d="M41.5849 72.5138C41.589 74.988 41.0197 77.4296 39.9216 79.6479C39.7977 79.9027 39.6663 80.15 39.5274 80.3973H11.3038C11.1648 80.15 11.0334 79.9027 10.9095 79.6479C7.9592 73.6781 8.98433 66.5131 13.4909 61.6058C17.9974 56.6985 25.0608 55.0558 31.2769 57.4694C37.4931 59.8829 41.5867 65.8574 41.5849 72.5138Z" fill="#2A2B38"/>
<path d="M25.8747 73.9285C28.9369 73.9285 31.4194 71.4461 31.4194 68.3839C31.4194 65.3217 28.9369 62.8392 25.8747 62.8392C22.8125 62.8392 20.3301 65.3217 20.3301 68.3839C20.3301 71.4461 22.8125 73.9285 25.8747 73.9285Z" fill="white"/>
<path d="M25.8746 70.2322C26.8953 70.2322 27.7228 69.4047 27.7228 68.384C27.7228 67.3632 26.8953 66.5358 25.8746 66.5358C24.8538 66.5358 24.0264 67.3632 24.0264 68.384C24.0264 69.4047 24.8538 70.2322 25.8746 70.2322Z" fill="#2A2B38"/>
<path d="M9.48207 56.8723C8.16654 51.0583 12.3718 45.1835 18.8748 43.7505C25.3778 42.3176 31.7159 45.8692 33.0315 51.6832C34.347 57.4972 30.0372 59.6415 23.5343 61.0744C17.0313 62.5073 10.7976 62.6863 9.48207 56.8723Z" fill="#00BCD8"/>
<path fill-rule="evenodd" clip-rule="evenodd" d="M1.89649 29.5714H48.9294C49.9767 29.5718 50.8255 30.4207 50.8259 31.4679V78.5008C50.8255 79.5481 49.9767 80.3969 48.9294 80.3973H1.89649C0.849244 80.3969 0.000378897 79.5481 0 78.5008V31.4679C0.000378897 30.4207 0.849244 29.5718 1.89649 29.5714ZM48.9298 79.6387C49.5574 79.6369 50.0658 79.1285 50.0677 78.5009V31.4679C50.0658 30.8403 49.5574 30.3319 48.9298 30.33H1.89685C1.26917 30.3319 0.76079 30.8403 0.758959 31.4679V78.5009C0.760798 79.1285 1.26917 79.6369 1.89685 79.6387H48.9298Z" fill="#2A2B38"/>
<path d="M100.876 169.954C102.492 165.719 102.726 161.874 101.399 161.366C100.072 160.858 97.6861 163.879 96.0704 168.114C94.4547 172.349 94.2207 176.194 95.5477 176.702C96.8747 177.21 99.2602 174.189 100.876 169.954Z" fill="#2A2B38"/>
<path d="M99.5023 184.062C100.952 175.112 94.8851 166.679 85.9512 165.226C77.0174 163.774 68.5998 169.852 67.15 178.802C65.7003 187.752 71.7673 196.186 80.7012 197.638C89.635 199.09 98.0526 193.012 99.5023 184.062Z" fill="#2A2B38"/>
<rect x="75.7764" y="194.062" width="4.62054" height="9.24107" fill="#2A2B38"/>
<rect x="85.9424" y="194.062" width="4.62054" height="9.24107" fill="#2A2B38"/>
<path d="M79.9348 205.152C82.2315 205.152 84.0933 204.531 84.0933 203.766C84.0933 203 82.2315 202.38 79.9348 202.38C77.6382 202.38 75.7764 203 75.7764 203.766C75.7764 204.531 77.6382 205.152 79.9348 205.152Z" fill="#2A2B38"/>
<path d="M90.1009 204.228C92.3975 204.228 94.2593 203.607 94.2593 202.841C94.2593 202.076 92.3975 201.455 90.1009 201.455C87.8042 201.455 85.9424 202.076 85.9424 202.841C85.9424 203.607 87.8042 204.228 90.1009 204.228Z" fill="#2A2B38"/>
<path d="M67.7008 165.917C66.3853 160.103 70.5905 154.228 77.0935 152.795C83.5965 151.362 89.9347 154.914 91.2502 160.728C92.5657 166.542 88.256 168.686 81.753 170.119C75.25 171.552 69.0164 171.731 67.7008 165.917Z" fill="#00BCD8"/>
<path d="M72.2717 177.332C72.8805 176.046 70.0594 173.429 65.9706 171.486C61.8818 169.543 58.0737 169.01 57.4649 170.296C56.8561 171.582 59.6772 174.2 63.766 176.143C67.8547 178.085 71.6629 178.618 72.2717 177.332Z" fill="#2A2B38"/>
<path d="M221.323 147.857C230.255 147.857 237.495 140.617 237.495 131.685C237.495 122.754 230.255 115.513 221.323 115.513C212.392 115.513 205.151 122.754 205.151 131.685C205.151 140.617 212.392 147.857 221.323 147.857Z" fill="#2A2B38"/>
<path d="M223.934 143.941L228.79 143.918L228.831 152.636L223.974 152.658L223.934 143.941Z" fill="#2A2B38"/>
<path d="M214.221 143.986L219.077 143.964L219.118 152.681L214.261 152.703L214.221 143.986Z" fill="#2A2B38"/>
<path d="M216.447 154.922C218.378 153.794 219.6 152.291 219.178 151.566C218.755 150.84 216.848 151.167 214.917 152.296C212.987 153.425 211.764 154.928 212.187 155.653C212.609 156.378 214.517 156.051 216.447 154.922Z" fill="#2A2B38"/>
<path d="M225.958 154.878C227.888 153.749 229.111 152.247 228.688 151.521C228.266 150.796 226.358 151.123 224.428 152.252C222.497 153.38 221.275 154.883 221.697 155.609C222.12 156.334 224.027 156.007 225.958 154.878Z" fill="#2A2B38"/>
<path d="M220.862 133.071C223.924 133.071 226.407 130.589 226.407 127.527C226.407 124.465 223.924 121.982 220.862 121.982C217.8 121.982 215.317 124.465 215.317 127.527C215.317 130.589 217.8 133.071 220.862 133.071Z" fill="white"/>
<path d="M219.013 126.603C220.034 126.603 220.861 125.775 220.861 124.754C220.861 123.734 220.034 122.906 219.013 122.906C217.993 122.906 217.165 123.734 217.165 124.754C217.165 125.775 217.993 126.603 219.013 126.603Z" fill="#2A2B38"/>
<path d="M237.265 116.898C238.553 111.072 234.321 105.209 227.812 103.805C221.304 102.4 214.984 105.985 213.696 111.811C212.408 117.638 216.727 119.765 223.235 121.17C229.744 122.575 235.977 122.725 237.265 116.898Z" fill="#00BCD8"/>
<path d="M212.115 126.391C212.655 125.112 209.795 122.68 205.729 120.959C201.662 119.237 197.929 118.879 197.389 120.158C196.85 121.437 199.709 123.869 203.776 125.59C207.842 127.311 211.576 127.67 212.115 126.391Z" fill="#2A2B38"/>
<path d="M244.777 139.665C245.317 138.386 242.457 135.954 238.391 134.232C234.325 132.511 230.591 132.152 230.051 133.431C229.512 134.71 232.371 137.143 236.438 138.864C240.504 140.585 244.238 140.944 244.777 139.665Z" fill="#2A2B38"/>
<path d="M224.558 138.411C224.566 139.796 223.869 141.082 222.729 141.782C221.588 142.482 220.178 142.49 219.03 141.803C217.883 141.117 217.171 139.84 217.165 138.454L217.165 138.447C217.156 136.305 218.809 135.854 220.85 135.844C222.891 135.834 224.548 136.269 224.558 138.411Z" fill="white"/>
<path fill-rule="evenodd" clip-rule="evenodd" d="M118.684 121.982H208.451C210.201 121.981 211.619 120.971 211.621 119.726V100.211C211.619 98.9658 210.201 97.9553 208.451 97.9553H118.684C116.934 97.9553 115.516 98.9658 115.514 100.211V119.726C115.516 120.972 116.934 121.982 118.684 121.982ZM116.781 100.21C116.782 99.4633 117.633 98.8569 118.683 98.8569L208.451 98.8577C209.501 98.8584 210.353 99.4641 210.353 100.211V119.725C210.351 120.472 209.501 121.079 208.451 121.079H118.683C117.633 121.078 116.781 120.472 116.781 119.725V100.21Z" fill="#2A2B38"/>
</svg>
